2 I/O | ds4da Cookbook
…
tidy_read_csv <- readr::read_csv(file = csv_file_path)

## Parsed with column specification:
## cols(
##   MCC = col_double(),
##   MNC = col_double(),
##   ISO = col_character(),
##   Country = col_character(),
##   `Country Code` = col_double(),
##   Network = col_character()
## )

tidy_read_csv

## # A tibble: 1,690 x 6
##      MCC   MNC ISO   Country     `Country Code` Network                  
##    <dbl> <dbl> <chr> <chr>                <dbl> <chr>                    
##  1   289    88 ge    Abkhazia                 7 A-Mobile                 
##  2   289    68 ge    Abkhazia                 7 A-Mobile                 
##  3   289    67 ge    Abkhazia                 7 Aquafon                  
##  4   412    88 af    Afghanistan             93 Afghan Telecom Corp. (AT)
##  5   412    80 af    Afghanistan             93 Afghan Telecom Corp. (AT)
##  6   412     1 af    Afghanistan             93 Afghan Wireless/AWCC     
##  7   412    40 af    Afghanistan             93 Areeba/MTN               
##  8   412    50 af    Afghanistan             93 Etisalat                 
##  9   412    30 af    Afghanistan             93 Etisalat                 
## 10   412    20 af    Afghanistan             93 Roshan/TDCA              
## # … with 1,680 more rows
…
